{
  "ITCompany": [
    {
      "Development": [
        {
          "employee": {
            "skills": [
              "Hiring",
              "Managing"
            ],
            "fisrtName": "Mister",
            "lastName": "Snager",
            "id": "111",
            "position": "Manager",
            "birthDate": "01.01.1997"
          }
        },
        {
          "employee": {
            "skills": [
              "Sleeping",
              "code breaking"
            ],
            "fisrtName": "Mkyong",
            "lastName": "King-kong",
            "id": "113",
            "manager's Id": "111",
            "position": "Developer",
            "birthDate": "01.01.1999"
          }
        }
      ]
    },
    {
      "Testing": [
        {
          "employee": {
            "skills": [
              "Hiring",
              "Managing"
            ],
            "fisrtName": "Havana",
            "lastName": "Liliana",
            "id": "112",
            "position": "Manager",
            "birthDate": "01.01.1997"
          }
        },
        {
          "employee": {
            "skills": [
              "Sleeping",
              "Code breaking"
            ],
            "fisrtName": "Doul",
            "lastName": "Kong",
            "id": "113",
            "manager's Id": "114",
            "position": "Tester",
            "birthDate": "01.01.1999"
          }
        }
      ]
    }
  ]
}